<?xml version="1.0" encoding="UTF-8" standalone="no"?>
<!-- Created with Inkscape (http://www.inkscape.org/) -->

<svg
   xmlns:dc="http://purl.org/dc/elements/1.1/"
   xmlns:cc="http://creativecommons.org/ns#"
   xmlns:rdf="http://www.w3.org/1999/02/22-rdf-syntax-ns#"
   xmlns:svg="http://www.w3.org/2000/svg"
   xmlns="http://www.w3.org/2000/svg"
   xmlns:sodipodi="http://sodipodi.sourceforge.net/DTD/sodipodi-0.dtd"
   xmlns:inkscape="http://www.inkscape.org/namespaces/inkscape"
   width="744.09448819"
   height="1052.3622047"
   id="svg3007"
   version="1.1"
   inkscape:version="0.48.4 r9939"
   sodipodi:docname="evil3.svg">
  <defs
     id="defs3009" />
  <sodipodi:namedview
     id="base"
     pagecolor="#ffffff"
     bordercolor="#666666"
     borderopacity="1.0"
     inkscape:pageopacity="0.0"
     inkscape:pageshadow="2"
     inkscape:zoom="22.4"
     inkscape:cx="35.747417"
     inkscape:cy="1042.492"
     inkscape:document-units="px"
     inkscape:current-layer="layer1"
     showgrid="false"
     inkscape:window-width="1920"
     inkscape:window-height="1062"
     inkscape:window-x="1920"
     inkscape:window-y="18"
     inkscape:window-maximized="0" />
  <metadata
     id="metadata3012">
    <rdf:RDF>
      <cc:Work
         rdf:about="">
        <dc:format>image/svg+xml</dc:format>
        <dc:type
           rdf:resource="http://purl.org/dc/dcmitype/StillImage" />
        <dc:title></dc:title>
      </cc:Work>
    </rdf:RDF>
  </metadata>
  <g
     inkscape:label="Layer 1"
     inkscape:groupmode="layer"
     id="layer1">
    <path
       style="fill:none;stroke:#000000;stroke-width:0.19518261px;stroke-linecap:butt;stroke-linejoin:miter;stroke-opacity:1"
       d="m 0.57973409,0.04012822 2.33735831,5.33874808 3.484499,2.3523664 2.0380534,2.4525733 1.2090144,3.177981 2.2798568,4.836059 2.314399,1.485361 2.279857,0.449063 2.452573,-0.62178 1.899879,-0.829038 2.763463,-1.519904 2.901635,-0.656323 2.003511,-0.587236 1.934423,0 2.901636,0.51815 2.176225,-0.31089 2.141684,-1.243558 1.692621,-1.968966 1.968967,-0.62178 1.347187,0.483606 1.105386,1.209015 1.899879,1.519904 2.176227,0.414519 3.005265,-0.207259 1.796251,-0.863582 1.554447,-0.483606 2.556205,0 1.105382,1.865337 2.245316,0.932669 1.72716,0.103629 1.485364,-0.967212 0.690865,1.139929 1.105382,1.070841 1.381736,0.449063 1.001755,-0.10363 0.759952,-0.241803 0.656319,-0.863582 0.863585,0.829039 0.449058,0.898125 0.863586,0.587236 0.967212,0.483606 1.209013,0.138173 1.174475,-0.03454 0.725405,0.967212 0.345433,2.141683 0.241804,1.830794 0.656322,0.898125 2.521662,0.276346 2.072593,-0.449062 1.174468,-0.932668 1.243565,-0.656323 1.312643,0.379976 0.829041,1.278101 0.518146,0.725409 1.174468,0.06908 1.105391,-0.690865 0.690866,-0.51815 1.312643,-0.552692 1.692621,-1.347188 4.041563,-0.829039 2.176229,1.070842 1.761701,3.385241 1.51991,2.3144 1.96897,1.416274 1.5199,0.656323 1.72716,2.867092 1.41628,2.798006 2.45257,0.656321 2.21077,0.725409 2.62529,-0.06908 5.25057,-0.794495 2.79801,0.10363 2.59074,1.312644 2.41804,0.552693 4.90514,-1.69262 6.77048,-4.179738 5.45785,-2.003509 10.05209,-1.139928 7.08137,2.314399 1.31264,3.557958 3.90339,4.974232 3.79977,3.557958 5.07786,0.656322 4.31791,-0.621779 0.55269,-1.105385 1.31265,-0.898126 1.24355,-0.276346 0.72541,0.587236 0.27634,0.518149 1.10539,0.20726 0.10363,-0.276346 0.37997,-0.483606 0.37998,0 0.69087,0.241802 1.13992,0.690866 0.93267,0.03454 1.76171,1.070842"
       id="path3015"
       inkscape:connector-curvature="0"
       sodipodi:nodetypes="cc" />
  </g>
</svg>
